<svg xmlns="http://www.w3.org/2000/svg" width="24" height="24" viewBox="0 0 24 24">
    <g fill="none" fill-rule="evenodd">
        <path fill="#954B97" d="M24 12c0 6.628-5.372 12-12 12S0 18.628 0 12 5.372 0 12 0s12 5.372 12 12"/>
        <path fill="#FFF" fill-rule="nonzero" d="M15.75 12.634h4.472a.634.634 0 1 0 0-1.268H15.75a.634.634 0 1 0 0 1.268z"/>
        <path fill="#FFF" fill-rule="nonzero" d="M18.634 14.25v-4.5a.634.634 0 1 0-1.268 0v4.5a.634.634 0 1 0 1.268 0z"/>
        <path fill="#FFF" d="M5.384 15.936c.585.903 1.42 1.43 2.507 1.655v.904c0 .526.501.903 1.003.903.5 0 1.003-.452 1.003-.903v-.904c1.671-.3 2.758-1.43 2.758-3.084 0-2.258-2.425-3.086-3.26-3.387-1.335-.451-1.504-.828-1.504-1.204 0-.226-.005-.8 1.08-.8.837 0 1.26.574 1.26.649.335.451.918.603 1.42.301.501-.301.67-.828.334-1.278-.25-.453-1.002-1.054-2.005-1.356V6.154c0-.529-.502-.904-1.003-.904-.502 0-1.003.452-1.003.904v1.278c-1.253.302-2.088 1.28-2.088 2.56 0 2.03 2.174 2.782 2.84 3.01 1.672.526 1.84 1.052 1.84 1.58 0 .828-.586 1.28-1.756 1.28-.836 0-1.42-.302-1.754-.83-.335-.45-.887-.59-1.42-.3-.393.223-.502.752-.252 1.204"/>
    </g>
</svg>
