<svg xmlns="http://www.w3.org/2000/svg" width="24" height="24" viewBox="0 0 24 24">
  <g fill="none" fill-rule="evenodd">
    <path fill="#F59C00" d="M12 0c7.6 0 12 3.807 12 12s-4.4 12-12 12S0 20.193 0 12 4.4 0 12 0z"/>
    <path fill="#FFF" d="M18.067 12.038v2.911c0 1.056-.773 1.915-1.723 1.915H8.986v-1.471a.345.345 0 0 0-.166-.302.28.28 0 0 0-.316.028l-2.378 2.26a.351.351 0 0 0-.126.273c0 .109.047.21.125.274l2.379 2.26a.28.28 0 0 0 .316.027.344.344 0 0 0 .166-.301v-1.47h7.358c1.732 0 3.142-1.568 3.142-3.493v-2.91c0-.436-.317-.789-.71-.789-.391 0-.709.353-.709.788M15.75 7.886v1.471c0 .127.064.243.166.3a.278.278 0 0 0 .316-.027l2.346-2.259a.353.353 0 0 0 .125-.274.355.355 0 0 0-.125-.273l-2.346-2.26a.28.28 0 0 0-.316-.028.346.346 0 0 0-.166.302v1.47H8.391c-1.732 0-3.141 1.567-3.141 3.494v2.91c0 .436.318.788.71.788.391 0 .709-.352.709-.788v-2.91c0-1.056.772-1.916 1.722-1.916h7.359z"/>
    <path fill="#FFF" d="M11.458 14.583v-3.184H10.22c-.365 0-.47-.267-.47-.454 0-.224.134-.445.47-.445h3.55c.341 0 .48.228.48.445a.453.453 0 0 1-.48.454h-1.237v3.184c0 .239-.25.411-.547.411-.26 0-.528-.142-.528-.411"/>
  </g>
</svg>
