<svg xmlns="http://www.w3.org/2000/svg" width="112" height="112" viewBox="0 0 112 112">
    <g fill="#00A9E0" fill-rule="nonzero">
        <path d="M56.9 40.4a3 3 0 1 0 0 6 3 3 0 0 0 0-6zm-2.425 13.225v16.25a2.525 2.525 0 1 0 5.05 0v-16.25A2.527 2.527 0 0 0 57 51.1a2.527 2.527 0 0 0-2.525 2.525z"/>
        <path d="M56 109c29.271 0 53-23.729 53-53S85.271 3 56 3 3 26.729 3 56s23.729 53 53 53zm0 3C25.072 112 0 86.928 0 56S25.072 0 56 0s56 25.072 56 56-25.072 56-56 56z"/>
    </g>
</svg>
