<svg xmlns="http://www.w3.org/2000/svg" xmlns:xlink="http://www.w3.org/1999/xlink" width="41" height="40" viewBox="0 0 41 40">
    <defs>
        <path id="77wgcgwtwa" d="M7.144 3.228c-1.761.027-5.011.89-6.496 6.914-.646 2.625-.896 5.361-.343 8.618.51 3.003 1.415 5.596 2.025 7.024.21.493.535 1.006.787 1.322.723.909 1.927.85 2.434.603.551-.27 1.185-.921.955-2.408-.11-.72-.43-1.77-.61-2.355-.553-1.793-1.288-3.956-1.352-5.498-.086-2.061.732-2.331 1.275-2.45.914-.2 1.68.797 2.408 2.046.868 1.491 2.356 4.133 3.57 6.151 1.096 1.822 3.12 3.772 6.367 3.638 3.312-.136 5.752-1.392 7.01-5.344.94-2.957 1.582-5.166 2.614-7.429 1.187-2.602 2.77-3.995 4.103-3.57 1.238.396 1.547 1.598 1.562 3.365.013 1.563-.169 3.286-.31 4.551-.052.46-.145 1.384-.107 1.897.075 1.009.514 2.016 1.657 2.177 1.218.172 2.195-.795 2.585-1.964.154-.46.285-1.165.356-1.665.358-2.526.45-4.224.29-6.808-.19-3.022-.784-5.778-1.823-8.162C35.108 1.6 33.512.139 31.466.009c-2.265-.143-4.864 1.351-6.228 4.248-1.257 2.67-2.262 5.412-2.872 6.811-.62 1.419-1.528 2.293-2.926 2.44-1.71.178-3.182-1.054-4.26-2.812-.94-1.532-2.805-4.45-3.802-5.43-.936-.92-2.007-2.073-4.234-2.038z"/>
    </defs>
    <g fill="none" fill-rule="evenodd">
        <g>
            <g>
                <g>
                    <g transform="translate(-24 -24) translate(24 24) translate(1 6)">
                        <mask id="n9vu8l2agb" fill="#fff">
                            <use xlink:href="#77wgcgwtwa"/>
                        </mask>
                        <path fill="#FFF" d="M-1.727 29.587L39.727 29.587 39.727 -1.72 -1.727 -1.72z" mask="url(#n9vu8l2agb)"/>
                    </g>
                </g>
            </g>
        </g>
    </g>
</svg>
