<svg xmlns="http://www.w3.org/2000/svg" width="64" height="64" viewBox="0 0 64 64">
    <g fill="none" fill-rule="evenodd">
        <g fill="#FFF" fill-rule="nonzero">
            <g>
                <path d="M31.991 0c21.128 0 32.01 10.88 32.01 32.008C64 53.125 53.118 64 31.99 64 10.875 64 .001 53.125.001 32.008 0 10.881 10.874 0 31.99 0zm0 2C11.98 2 2.001 11.985 2.001 32.008 2 52.021 11.978 62 31.99 62c20.024 0 30.01-9.98 30.01-29.992C62 11.985 52.014 2 31.99 2zm13.754 17.757c.342-.434.97-.51 1.405-.168.434.341.51.97.168 1.404l-19.27 24.508c-.4.51-1.173.51-1.573-.001l-7.663-9.783c-.34-.435-.264-1.063.171-1.404.435-.34 1.063-.264 1.404.17l6.877 8.78z" transform="translate(-24 -128) translate(24 128)"/>
            </g>
        </g>
    </g>
</svg>
